﻿[
	{
		"_id": "c-10100",
		"_parentId": "b-1010",
		"_type": "component",
		"_component": "text",
		"_classes": "",
		"_layout": "full",
		"title": "E-posta pazarlamacılığında kendinizi geliştirin",
		"displayTitle": "E-posta pazarlamacılığında kendinizi geliştirin",
		"body": "",
		"instruction": "",
		"_pageLevelProgress": {
			"_isEnabled": true
		}
	}, 
	{
		"_id": "c-10200",
		"_parentId": "b-1020",
		"_type": "component",
		"_component": "graphic",
		"_classes": "",
		"_layout": "left",
		"title": "Mobil örneği",
		"displayTitle": "",
		"body": "",
		"instruction": "",
		"_graphic": {
			"alt": "alternatif metin",
			"src": "course/en/images/01_introduction/module_1_mobile_transforming_1.png",
			"attribution": ""
		},
		"_pageLevelProgress": {
			"_isEnabled": false
		}
	},
	{
		"_id": "c-10250",
		"_parentId": "b-1020",
		"_type": "component",
		"_component": "text",
		"_classes": "",
		"_layout": "right",
		"title": "Mevcut verilerinizden faydalanın",
		"displayTitle": "",
		"body": "<br><br>Hedef kitlenize bir şeyler pazarlayabileceğiniz bu kadar çok platform varken, müşterilerinize erişmek için her yerde bulunma zorunluluğu hissedebilirsiniz. Veya sadece elinizdekileri, yani mevcut müşteri veritabanınızı en üst düzeye çıkarmaya odaklanabilirsiniz.",
		"instruction": "",
		"_pageLevelProgress": {
			"_isEnabled": false
		}
	},
	{
		"_id": "c-10300",
		"_parentId": "b-1030",
		"_type": "component",
		"_component": "text",
		"_classes": "",
		"_layout": "left",
		"title": "E-posta pazarlamacılığının değeri",
		"displayTitle": "",
		"body": "<br><br>E-posta pazarlamacılığı müşterilerinizle iletişime geçmek için harika bir yol olabilir. E-posta göndermek sabit ancak çok düşük bir ücret gerektirdiğinden, bu yöntem genellikle uygun maliyetlidir ve pazarlamacıların yatırım getirisi elde etmesini sağlar. <sup>1</sup> Ayrıca insanlara oldukça sık kullandıkları bir yöntemle erişir.",
		"instruction": "",
		"_pageLevelProgress": {
			"_isEnabled": false
		}
	},
	{
		"_id": "c-10350",
		"_parentId": "b-1030",
		"_type": "component",
		"_component": "graphic",
		"_classes": "",
		"_layout": "right",
		"title": "Mobil cihaz örneği",
		"displayTitle": "",
		"body": "",
		"instruction": "",
		"_graphic": {
			"alt": "alternatif metin",
			"src": "course/en/images/01_introduction/module_1_mobile_transforming_2.png",
			"attribution": ""
		},
		"_pageLevelProgress": {
			"_isEnabled": false
		}
	},
	{
		"_id": "c-10400",
		"_parentId": "b-1040",
		"_type": "component",
		"_component": "graphic",
		"_classes": "",
		"_layout": "left",
		"title": "Mobil cihaz örneği",
		"displayTitle": "",
		"body": "",
		"instruction": "",
		"_graphic": {
			"alt": "alternatif metin",
			"src": "course/en/images/01_introduction/module_1_mobile_transforming_3.png",
			"attribution": ""
		},
		"_pageLevelProgress": {
			"_isEnabled": false
		}
	},
	{
		"_id": "c-10450",
		"_parentId": "b-1040",
		"_type": "component",
		"_component": "text",
		"_classes": "",
		"_layout": "right",
		"title": "Pazarlama harcamalarınızı en üst düzeye çıkarın",
		"displayTitle": "",
		"body": "<br><br>Mevcut e-posta kampanyanızı Facebook ve Instagram’da daha önce işletmenize ilgi göstermiş olan veya bu kişilerle benzer özelliklere sahip kişilerden oluşan bir hedef kitleyle birleştirerek mevcut veritabanınızın değerini en yüksek düzeye çıkarabilir ve yeni müşteriler bulabilirsiniz. Buna insanlara dayalı hedefleme diyoruz.",
		"instruction": "",
		"_pageLevelProgress": {
			"_isEnabled": false
		}
	},
	{
		"_id": "c-10500",
		"_parentId": "b-1050",
		"_type": "component",
		"_component": "text",
		"_classes": "",
		"_layout": "full",
		"title": "Doğru hedef kitleye erişin",
		"displayTitle": "Doğru hedef kitleye erişin",
		"body": "İnsanlar mobil uygulamalarda her geçen gün daha fazla zaman geçiriyor ve her 5 dakikadan 1’inin geçirildiği Facebook ve Instagram bu konuda tüm mobil uygulamaların başında geliyor. Bu değer sonraki 10 mobil platformun toplamından daha fazla.<sup>2</sup><br><br>Facebook ve Instagram’da reklam yayınlamak kampanyanıza şu şekilde yardımcı olabilir: Hedefleme özelliğimizin gücünden faydalanarak veritabanınızdaki müşterilerle konum, yaş, cinsiyet ve ilgi alanları açısından benzer özelliklere sahip yeni müşterilere erişebilirsiniz. Ayrıca platformumuzda reklam yayınlayarak e-posta kampanyanızın mesajını güçlendirebilirsiniz.",
		"instruction": "",
		"_pageLevelProgress": {
			"_isEnabled": true
		}
	},
	{
		"_id": "c-10600",
		"_parentId": "b-1060",
		"_type":"component",
		"_component":"facebook-animationBox",
		"_classes":"",
		"title":"Facebook ve Instagram",
		"displayTitle":"",
		"_layout":"full",
		"_resources": {
			"width":"871",
			"height":"490",
			"animation":"ballCombine",	
            "background":"course/en/images/01_introduction/combine_background.png",	
            "icon_1":"course/en/images/01_introduction/facebook_icon.png",	
            "icon_2":"course/en/images/01_introduction/instagram_icon.png",
			"icon_3":"course/en/images/01_introduction/combo_icon.png",
			"sphereText_1":"Dünyayı daha açık ve bağlantılı hale getirmek",
			"sphereCount":"2",
			"sphereText_2":"Hayatın anlarını yakalamak ve paylaşmak"
		},
		"_animationCanvas":"<script src='course/en/animations/ballCombine.js'></script><div><canvas id='ballCombine' width='871px' height='473px'></canvas></div>",
		"_pageLevelProgress": {
		"_isEnabled": false
		}
	},
	{
		"_id": "c-10700",
		"_parentId": "b-1070",
		"_type": "component",
		"_component": "text",
		"_classes": "",
		"_layout": "full",
		"title":"Facebook ve Instagram ile pazarlama hedeflerinize ulaşın",
		"displayTitle": "",
		"body": "Facebook ve Instagram’da reklam yayınlamak aşağıdaki pazarlama hedeflerine ulaşmanıza yardımcı olabilir:",
		"instruction": "",
		"_pageLevelProgress": {
		"_isEnabled": true
		}
	},
	{
		"_id": "c-10800",
		"_parentId": "b-1080",
		"_type": "component",
		"_component": "graphic",
		"_classes": "",
		"_layout": "left",
		"title":"E-posta veritabanınızı büyütün",
		"displayTitle": "",
		"body": "E-posta veritabanınızı büyütmek için yeni potansiyel müşteriler bulun.",
		"instruction": "",
		"_graphic": {
			"alt": "alternatif metin", 
            "src":"course/en/images/01_introduction/module_1_generate_new_leads_icon.png",
			"attribution": ""
		},
		"_pageLevelProgress": {
			"_isEnabled": false
		}
	},
	{
		"_id": "c-10850",
		"_parentId": "b-1080",
		"_type": "component",
		"_component": "graphic",
		"_classes": "",
		"_layout": "right",
		"title": "E-posta pazarlamacılığı için kullandığınız mesajı güçlendirin",
		"displayTitle": "",
		"body": "E-posta pazarlamacılığı için kullandığınız mesajı güçlendirin.",
		"instruction": "",
		"_graphic": {
			"alt": "alternatif metin",
			"src": "course/en/images/01_introduction/module_1_reinforce_marketing_message_icon.png",
			"attribution": ""
		},
		"_pageLevelProgress": {
			"_isEnabled": false
		}
	},
	{
		"_id": "c-10900",
		"_parentId": "b-1090",
		"_type": "component",
		"_component": "graphic",
		"_classes": "",
		"_layout": "left",
		"title": "E-postalarınıza yanıt vermeyen müşterilerinizi yeniden etkileşime teşvik edin",
		"displayTitle": "",
		"body": "E-postalarınıza yanıt vermeyen müşterilerinizi yeniden etkileşime teşvik edin.",
		"instruction": "",
		"_graphic": {
			"alt": "alternatif metin",
			"src": "course/en/images/01_introduction/module_1_re-engage_customers_icon.png",
			"attribution": ""
		},
		"_pageLevelProgress": {
			"_isEnabled": false
		}
	}, 
	{
		"_id": "c-10950",
		"_parentId": "b-1090",
		"_type": "component",
		"_component": "graphic",
		"_classes": "",
		"_layout": "right",
		"title": "Müşterilerinizi dönüşüme teşvik edin",
		"displayTitle": "",
		"body": "Müşterilerinizi dönüşüme teşvik edin.",
		"instruction": "",
		"_graphic": {
			"alt": "alternatif metin",
			"src": "course/en/images/01_introduction/module_1_drive_customers_to_convert_icon.png",
			"attribution": ""
		},
		"_pageLevelProgress": {
			"_isEnabled": false
		}
	},
	{
		"_id": "c-11300",
		"_parentId": "b-1130",
		"_type": "component",
		"_component": "text",
		"_classes": "",
		"_layout": "full",
		"title": "Öğrenme amaçları",
		"displayTitle": "",
		"body": "Bu kursta şunları öğreneceksiniz:<br><br><ul><li>Neden pazarlama çalışmalarınızı genişleterek Facebook ve Instagram reklamlarını da eklemelisiniz ve bu reklamlar kampanyanızın daha etkili olmasına nasıl yardımcı olabilir?</li><li>Facebook ve Instagram, e-posta listenizi genişletmenizi sağlayacak yeni bir hedef kitleye erişmenize ve mevcut müşterilerinizle bağlantıya geçmenize nasıl yardımcı olabilir?</li><li>Facebook ve Instagram reklamlarını kullanmaya başlamaya ilişkin sonraki adımlar.",
		"instruction": "",
		"_pageLevelProgress": {
			"_isEnabled": true
		}
	},
	{
		"_id": "c-11400",
		"_parentId": "b-1140",
		"_type": "component",
		"_component": "text",
		"_classes": "",
		"_layout": "full",
		"title": "İstatistikleri ilişkilendirme",
		"displayTitle": "",
		"body": "<hr><cite><sup>1</sup>Kaynak: Email Marketing Industry Census, Adestra ile yapılan ortak çalışma, Nisan 2016.</cite><br><cite><sup>2</sup>Kaynak: Nielsen Mobile Netview, ABD, Mart 2016.</cite>",
		"instruction": "",
		"_pageLevelProgress": {
			"_isEnabled": false
		}
	},
	{
		"_id": "c-11500",
		"_parentId": "b-1150",
		"_type": "component",
		"_component": "co-jump",
		"_classes": "color-test",
		"_preLinkBody": "Facebook ve Instagram’ın sizin için önemini öğrendiğinize göre sıradaki konumuza geçelim: ",
		"_linkBody": "Mevcut Müşterilerle Bağlantı Kurma ve İşletmenizi Yeni Müşterilere Tanıtma.",
		"_postLinkBody": "",
		"_link": "#/id/co-2000",
		"_graphic": "adapt/css/assets/icon_nextPage.png",
		"_pageLevelProgress": {
			"_isEnabled": false
		}
	},
	{
		"_id": "c-20000",
		"_parentId": "b-2000",
		"_type": "component",
		"_component": "text",
		"_classes": "",
		"_layout": "full",
		"title": "Müşterilerinize erişin",
		"displayTitle": "Müşterilerinize erişin",
		"body": "Facebook ve Instagram’da aynı kişilere erişmek için reklam hedeflemesi yaparak, e-posta kampanyanız aracılığıyla gönderdiğiniz mesajı güçlendirebilirsiniz. Facebook’ta bir Özel Hedef Kitle oluşturarak reklamlarınızı kimlerin göreceğini belirleyebilirsiniz.",
		"instruction": "",
		"_pageLevelProgress": {
			"_isEnabled": true
		}
	},
	{
		"_id": "c-20200",
		"_parentId": "b-2020",
		"_type": "component",
		"_component": "graphic",
		"_classes": "",
		"_layout": "left",
		"title": "Özel Hedef Kitle grafiği",
		"displayTitle": "",
		"body": "",
		"instruction": "",
		"_graphic": {
			"alt": "alternatif metin",
			"src": "course/en/images/02_connecting/custom_audiences_edited.png",
			"attribution": ""
		},
		"_pageLevelProgress": {
			"_isEnabled": false
		}
	}, 
	{
		"_id": "c-20250",
		"_parentId": "b-2020",
		"_type": "component",
		"_component": "text",
		"_classes": "",
		"_layout": "right",
		"title": "Özel Hedef Kitle",
		"displayTitle": "",
		"body": "<h2>Özel Hedef Kitle</h2> Özel Hedef Kitleniz, e-posta veritabanınızı kullanan kişilere dayalı bir hedefleme seçeneğiyle Facebook ve Instagram’da bu kişileri bulmanızı sağlar. Böylece reklamlarınızla bu kişileri hedefleyebilirsiniz. E-posta veritabanınızı Facebook’a yüklediğinizde, sistemimiz bir Özel Hedef Kitle oluşturur. Tüm müşteri bilgileriniz, hedef kitlenizin verilerini gizli ve güvende tutarak onlara erişmenizi sağlayacak şekilde anonim bir yolla kullanılır. Özel Hedef Kitleniz oluşturulduğunda, reklamınızı oluştururken bunu bir hedef kitle seçeneği olarak görürsünüz. Ardından Facebook ve Instagram reklamlarınızı Özel Hedef Kitlenize yayınlayabilir veya başka hedef kitleleri de dahil ederek reklamınızın erişimini genişletebilirsiniz.",
		"instruction": "",
		"_pageLevelProgress": {
			"_isEnabled": true
		}
	},
	{
		"_id": "c-20400",
		"_parentId": "b-2040",
		"_type": "component",
		"_component": "text",
		"_classes": "",
		"_layout": "full",
		"title": "Özel hedef kitle kullanımına örnek",
		"displayTitle": "",
		"body": "Bir bayi son altı ay içinde alışveriş yapmamış mevcut müşterilerine e-posta gönderebilir. Bu bayi Özel Hedef Kitlesini kullanarak aynı kişileri Facebook ve Instagram’da bir sonraki alışverişlerinde indirim teklifiyle hedefleyebilir.",
		"instruction": "",
		"_pageLevelProgress": {
			"_isEnabled": false
		}
	},
	{
		"_id": "c-20450",
		"_parentId": "b-2040",
		"_type": "component",
		"_component": "graphic",
		"_classes": "",
		"_layout": "full",
		"title": "Pazarlama mesajının güçlendirilmesine örnek",
		"displayTitle": "",
		"body": "",
		"instruction": "",
		"_graphic": {
			"alt": "alternatif metin",
			"src": "course/en/images/02_connecting/module_2_reinforce_messaging.png",
			"attribution": ""
		},
		"_pageLevelProgress": {
			"_isEnabled": false
		}
	},
	{
		"_id": "c-20500",
		"_parentId": "b-2050",
		"_type": "component",
		"_component": "text",
		"_classes": "",
		"_layout": "full",
		"title": "Yeni potansiyel müşteriler bulun",
		"displayTitle": "Yeni potansiyel müşteriler bulun",
		"body": "Yeni müşterilere erişerek e-posta veritabanınızı büyütmek istiyorsanız, daha önce işletmenize ilgi göstermiş olanlara benzer kişilere erişmek için bir benzer hedef kitle oluşturarak işe başlayabilirsiniz.",
		"instruction": "",
		"_pageLevelProgress": {
			"_isEnabled": true
		}
	},
	{
		"_id": "c-20600",
		"_parentId": "b-2060",
		"_type": "component",
		"_component": "graphic",
		"_classes": "",
		"_layout": "left",
		"title": "Benzer hedef kitle grafiği",
		"displayTitle": "",
		"body": "",
		"instruction": "",
		"_graphic": {
			"alt": "alternatif metin",
			"src": "course/en/images/02_connecting/lookalike_audiences_edited.png",
			"attribution": ""
		},
		"_pageLevelProgress": {
			"_isEnabled": false
		}
	}, 
	{
		"_id": "c-20650",
		"_parentId": "b-2060",
		"_type": "component",
		"_component": "text",
		"_classes": "",
		"_layout": "right",
		"title": "Benzer hedef kitle",
		"displayTitle": "",
		"body": "<br><br><b>Benzer hedef kitle:</b> Facebook ve Instagram’da işletmenize daha önce ilgi göstermiş olanlarla ilgi alanı, konum, yaş ve cinsiyet gibi özellikler açısından benzer kişileri bulmanıza olanak tanıyan insanlara dayalı bir hedefleme seçeneği.",
		"instruction": "",
		"_pageLevelProgress": {
			"_isEnabled": true
		}
	},
	{
		"_id": "c-20700",
		"_parentId": "b-2070",
		"_type": "component",
		"_component": "text",
		"_classes": "",
		"_layout": "full",
		"title": "Özel hedef kitlelerden benzer hedef kitleler oluşturun",
		"displayTitle": "",
		"body": "Benzer hedef kitlenizi oluşturmak ve reklamlarınızı bu hedef kitleye hedeflemek için Özel Hedef Kitlenizden sağladığınız bilgileri kullanabilirsiniz.",
		"instruction": "",
		"_pageLevelProgress": {
			"_isEnabled": false
		}
	},
	{
		"_id": "c-20800",
		"_parentId": "b-2080",
		"_type": "component",
		"_component": "graphic",
		"_classes": "",
		"_layout": "full",
		"title": "Benzer hedef kitle grafiği",
		"displayTitle": "",
		"body": "",
		"instruction": "",
		"_graphic": {
			"alt": "alternatif metin",
			"src": "course/en/images/02_connecting/module_2_lookalike_audience_icons.png",
			"attribution": ""
		},
		"_pageLevelProgress": {
			"_isEnabled": false
		}
	}, 
	{
		"_id": "c-20900",
		"_parentId": "b-2090",
		"_type": "component",
		"_component": "text",
		"_classes": "",
		"_layout": "full",
		"title": "Benzer hedef kitleleri hedefleme",
		"displayTitle": "",
		"body": "Benzer hedef kitleniz oluşturulduğunda, bu hedef kitleyi potansiyel müşteri reklamları ve e-posta veritabanınızı büyütmenize yardımcı olabilecek bir reklam ünitesiyle hedefleyebilirsiniz. Hedefiniz potansiyel müşterilerinizin bilgilerini sizinle paylaşması olduğundan, potansiyel müşteri reklamlarını kullanarak insanların özellikle mobilde tek tıkla bilgilerini göndermesini kolaylaştırabilirsiniz. Bir kişi bir potansiyel müşteri reklamına tıkladığında, e-posta adresi ve iletişim bilgileri gibi Facebook’la paylaşmış olduğu bilgilerle önceden doldurulmuş Facebook üzerindeki bir forma yönlendirilir. İnsanlar <b>Gönder</b>’e tıklamadan önce formu kolayca düzenleyebilir ve inceleyebilirler.&#160;Ardından potansiyel müşteri bilgilerine CRM sisteminizde ortaklarımızdan biriyle doğrudan veya üçüncü taraf entegrasyonu üzerinden ya da Facebook Pazarlama API’si aracılığıyla istediğiniz zaman erişebilirsiniz. Potansiyel müşteri verileri ayrıca CSV dosyası olarak da indirilebilir.",
		"instruction": "",
		"_pageLevelProgress": {
			"_isEnabled": true
		}
	},
	{
		"_id": "c-21100",
		"_parentId": "b-2110",
		"_type": "component",
		"_component": "graphic",
		"_classes": "",
		"_layout": "full",
		"title": "Potansiyel müşteri reklamları grafiği",
		"displayTitle": "",
		"body": "",
		"instruction": "",
		"_graphic": {
			"alt": "alternatif metin",
			"src": "course/en/images/02_connecting/module_2_lead_ads.png",
			"attribution": ""
		},
		"_pageLevelProgress": {
			"_isEnabled": false
		}
	}, 
	{
		"_id": "c-21300",
		"_parentId": "b-2130",
		"_type": "component",
		"_component": "text",
		"_classes": "",
		"_layout": "full",
		"title": "Müşterilerinizin yeniden etkileşime geçmesini sağlayın",
		"displayTitle": "Müşterilerinizin yeniden etkileşime geçmesini sağlayın",
		"body": "Facebook ve Instagram, e-postalarınıza yanıt vermeyen müşteriler üzerinde etkili olabilir.<br><br>Ev eşyaları satan Westwing, henüz alışveriş yapmamış internet sitesi ziyaretçileriyle birlikte artık e-postalarını açmayan veya abonelikten çıkmış müşterileri yeniden hedefledi.<br><br>Şirket Facebook’u e-posta pazarlamasına ekleyerek, bir süredir etkileşimde bulunmamış müşteriler tarafından sepete eklenen ürünlerde %9 artış elde etti.<sup>3</sup><br><br>Westwing, Facebook’u mevcut e-posta kampanyalarıyla birleştirerek hem kampanya hem de ürün sayfalarındaki önemli sayfa görüntülemelerinde ayrıca %19 artış sağladı.<sup>4</sup>",
		"instruction": "",
		"_pageLevelProgress": {
			"_isEnabled": true
		}
	},
	{
		"_id": "c-21450",
		"_parentId": "b-2140",
		"_type": "component",
		"_component": "text",
		"_classes": "",
		"_layout": "right",
		"title": "blank",
		"displayTitle": "",
		"body": "",
		"instruction": "",
		"_pageLevelProgress": {
			"_isEnabled": false
		}
	},
	{
		"_id": "c-21500",
		"_parentId": "b-2150",
		"_type": "component",
		"_component": "text",
		"_classes": "",
		"_layout": "full",
		"title": "Dönüşümleri artırın",
		"displayTitle": "Dönüşümleri artırın",
		"body": "E-postanızı açan ve Facebook ve Instagram’da reklamınızı gören insanların alışveriş yapma olasılığı daha yüksektir.<br><br>Westwing, sürekli e-posta pazarlamasına tamamlayıcı olarak Facebook’u kullandığında, alışverişi tamamlama oranında %10 artış elde etti.<sup>5</sup><br><br>Güzellik şirketi Carol’s Daughter, e-postayla eriştikleri kişilere erişmek için dönüşüm takibiyle birlikte bağlantı reklamlarını kullandı ve Facebook reklamlarının dahil edilmesiyle %70’lik bir dönüşüm oranı sağladı.<sup>6</sup> <br><br>Carol’s Daughter’ın yaptığı gibi insanları internet sitenize çekmek için reklam yayınladığınızda, ziyaretçilerin alışveriş yapmasına veya başka bir eylemde bulunmasına yardımcı olup olamadığını öğrenebilirsiniz. Eylemleri, ziyaretçilerin gitmesini istediğiniz bir sayfanın HTML koduna ekleyeceğiniz birkaç satırlık bir koddan oluşan bir Facebook pikseliyle takip edebilirsiniz. Ziyaretçiler bu sayfaya girdiğinde Facebook pikseli Facebook’u bu eylemden haberdar eder ve Facebook reklamınız sonucunda kaç kişinin internet sitenizde eylemde bulunduğu hakkında raporlar alırsınız.",
		"instruction": "",
		"_pageLevelProgress": {
			"_isEnabled": true
		}
	},
	{
		"_id": "c-21700",
		"_parentId": "b-2170",
		"_type": "component",
		"_component": "text",
		"_classes": "",
		"_layout": "full",
		"title": "Tavsiye edilen Blueprint kursları",
		"displayTitle": "",
		"body": "Değindiğimiz konulara dayanarak aşağıdaki Blueprint kurslarını faydalı bulabilirsiniz:<br><br><ul><em><li>Hedefleme — Özel Hedef Kitleler</li><li>Hedefleme — Benzer Hedef Kitleler</li><li>İnsanların Birden Fazla Cihaz Kullandığı Günümüzde Potansiyel Müşterileri Daha Basit Yöntemlerle Bulun</li><li>Kampanyalarınızı Ölçmek, Optimize Etmek ve Kampanyalarınıza Yönelik Hedef Kitle Oluşturmak için Facebook Pikselini Kullanma</li></em></ul>",
		"instruction": "",
		"_pageLevelProgress": {
			"_isEnabled": true
		}
	},
	{
		"_id": "c-21750",
		"_parentId": "b-2170",
		"_type": "component",
		"_component": "text",
		"_classes": "",
		"_layout": "full",
		"title": "Veri kaynakları",
		"displayTitle": "",
		"body": "<hr></a></cite><br><cite><sup>3,4,5</sup>Kaynak: <a href='https://www.facebook.com/business/success/westwing' target='_blank'>Facebook Başarı Hikayeleri: Westwing, Ağustos 2015.</a></cite><br><cite><sup>6</sup>Kaynak: <a href='https://www.facebook.com/business/success/carols-daughter' target='_blank'>Facebook Başarı Hikayeleri: Carol’s Daughter, Ağustos 2015.</cite>",
		"instruction": "",
		"_pageLevelProgress": {
			"_isEnabled": false
		}
	}, 
	{
		"_id": "c-21800",
		"_parentId": "b-2180",
		"_type": "component",
		"_component": "co-jump",
		"_classes": "color-test",
		"_preLinkBody": "Facebook’un e-posta pazarlamacılarına nasıl yardımcı olabileceğini öğrendiğinize göre sıradaki konumuza geçebiliriz: ",
		"_linkBody": "Başarı Hikayeleri.",
		"_postLinkBody": "",
		"_link": "#/id/co-3000",
		"_graphic": "adapt/css/assets/icon_nextPage.png",
		"_pageLevelProgress": {
			"_isEnabled": false
		}
	},
	
	
	
	
	
	{
		"_id": "c-30000",
		"_parentId": "b-3000",
		"_type": "component",
		"_component": "text",
		"_classes": "",
		"_layout": "full",
		"title": "Apttus",
		"displayTitle": "Apttus",
		"body": "Blog aboneliği kayıtlarını artırmak için potansiyel müşteri reklamlarını kullanan satış yazılımı şirketi, potansiyel müşteri başına ücreti %58 azalttı<sup>7</sup> ve potansiyel müşteri yanıt süresinde %99’luk bir iyileşme kaydetti.<sup>8</sup>",
		"instruction": "",
		"_pageLevelProgress": {
			"_isEnabled": true
		}
	},
	{
		"_id": "c-30200",
		"_parentId": "b-3020",
		"_type": "component",
		"_component": "graphic",
		"_classes": "",
		"_layout": "full",
		"title": "Apptus örneği",
		"displayTitle": "",
		"body": "",
		"instruction": "",
		"_graphic": {
			"alt": "alternatif metin",
			"src": "course/en/images/03_success_stories/module_3_apttus_ads.png",
			"attribution": ""
		},
		"_pageLevelProgress": {
			"_isEnabled": false
		}
	}, 
	{
		"_id": "c-30300",
		"_parentId": "b-3030",
		"_type": "component",
		"_component": "text",
		"_classes": "",
		"_layout": "full",
		"title": "Waylens",
		"displayTitle": "Waylens",
		"body": "Performans izleme kameraları üreten şirket, e-posta aboneliklerini, marka bilinirliğini ve ön siparişleri artırmak için dönen reklamlar ve video reklamları oluşturarak çok yönlü bir kampanya yürüttü ve aşağıdaki sonuçları elde etti:<br><br><ul><li>E-posta aboneliğinde 9 kat artış<sup>9</sup></li><li>İlk haftada tıklama başına ücrette %53 düşüş<sup>10</sup></li><li>5 haftada kazanılan müşteri başına ücrette %51 düşüş<sup>11</sup></li></ul>",
		"instruction": "",
		"_pageLevelProgress": {
			"_isEnabled": true
		}
	},
	{
		"_id": "c-30500",
		"_parentId": "b-3050",
		"_type": "component",
		"_component": "graphic",
		"_classes": "",
		"_layout": "full",
		"title": "Waylens örneği",
		"displayTitle": "",
		"body": "Dönen reklamlar, 3 ila 5 tıklanabilir görsel ve/veya video içeren tek bir reklam ünitesidir.",
		"instruction": "",
		"_graphic": {
			"alt": "alternatif metin",
			"src": "course/en/images/03_success_stories/module_3_waylens_ad_all_4.png",
			"attribution": ""
		},
		"_pageLevelProgress": {
			"_isEnabled": false
		}
	}, 
	{
		"_id": "c-30800",
		"_parentId": "b-3080",
		"_type": "component",
		"_component": "text",
		"_classes": "",
		"_layout": "full",
		"title": "Örnekler ve verilerin kaynakları",
		"displayTitle": "",
		"body": "<hr><cite><sup>7,8</sup>Kaynak: <a href='https://www.facebook.com/business/success/apttus' target='_blank'>Facebook Başarı Hikayeleri: Apttus, Mayıs 2016.</a></cite><br><cite><sup>9,10,11</sup>Kaynak: <a href='https://www.facebook.com/business/success/waylens' target='_blank'>Facebook Başarı Hikayeleri: Waylens, Mart 2016.</cite>",
		"instruction": "",
		"_pageLevelProgress": {
			"_isEnabled": false
		}
	}, 
	{
		"_id": "c-30900",
		"_parentId": "b-3090",
		"_type": "component",
		"_component": "co-jump",
		"_classes": "color-test",
		"_preLinkBody": "Birkaç başarı hikayesine baktığımıza göre şimdiki konumuz ",
		"_linkBody": "Sonraki Adımlar.",
		"_postLinkBody": "",
		"_link": "#/id/co-4000",
		"_graphic": "adapt/css/assets/icon_nextPage.png",
		"_pageLevelProgress": {
			"_isEnabled": false
		}
	},
	{
		"_id": "c-40100",
		"_parentId": "b-4010",
		"_type": "component",
		"_component": "text",
		"_classes": "",
		"_layout": "full",
		"title": "Yeni potansiyel müşteriler bulun",
		"displayTitle": "",
		"body": "<h2>Yeni potansiyel müşteriler bulun</h2><br><ol><li>E-posta veritabanınıza dayalı Özel Hedef Kitlenizi kullanın ve bir benzer hedef kitle oluşturun. Böylece reklamlarınızla işletmenize daha önce ilgi göstermiş kişilerle benzer özelliklere sahip insanları hedefleyebilirsiniz.<br><br></li><li>Potansiyel müşteri reklamlarıyla, insanlar iletişim bilgilerini sizinle paylaşarak işletmenize ilgisini gösterebilir. Ardından ortaklarımızdan biriyle doğrudan veya üçüncü taraf entegrasyonu üzerinden ya da Facebook Pazarlama API’si aracılığıyla potansiyel müşteri bilgilerini CRM sisteminizle entegre edebilirsiniz. Potansiyel müşteri verileri ayrıca CSV dosyası olarak da indirilebilir.</li></ol>",
		"instruction": "",
		"_pageLevelProgress": {
			"_isEnabled": true
		}
	},
	{
		"_id": "c-40200",
		"_parentId": "b-4010",
		"_type": "component",
		"_component": "graphic",
		"_classes": "",
		"_layout": "full",
		"title": "Yeni potansiyel müşteriler örneği",
		"displayTitle": "",
		"body": "",
		"instruction": "",
		"_graphic": {
			"alt": "alternatif metin",
			"src": "course/en/images/04_next_steps/module_4_new_leads_edited.png",
			"attribution": ""
		},
		"_pageLevelProgress": {
			"_isEnabled": false
		}
	},
	{
		"_id": "c-40300",
		"_parentId": "b-4030",
		"_type": "component",
		"_component": "text",
		"_classes": "",
		"_layout": "full",
		"title": "Mesajlaşmayı güçlendirin",
		"displayTitle": "",
		"body": "<h2>Mesajlaşmayı güçlendirin</h2><br><br><ol><li>E-posta listenize dayalı bir Özel Hedef Kitle oluşturun.<br><br></li><li>Facebook reklam verme amaçlarından birini seçerek mesajınızı nasıl güçlendirmek istediğinize karar verin.</li>",
		"instruction": "",
		"_pageLevelProgress": {
			"_isEnabled": true
		}
	}, 
	{
		"_id": "c-40400",
		"_parentId": "b-4040",
		"_type": "component",
		"_component": "graphic",
		"_classes": "",
		"_layout": "full",
		"title": "Marka bilinirliği örneği",
		"displayTitle": "",
		"body": "",
		"instruction": "",
		"_graphic": {
			"alt": "alternatif metin",
			"src": "course/en/images/04_next_steps/module_4_objectives_screen_shot.png",
			"attribution": ""
		},
		"_pageLevelProgress": {
			"_isEnabled": false
		}
	},
	{
		"_id": "c-40700",
		"_parentId": "b-4070",
		"_type": "component",
		"_component": "graphic",
		"_classes": "",
		"_layout": "full",
		"title": "Facebook ve Instagram’da mesajlaşmayı güçlendirin",
		"displayTitle": "",
		"body": "<ol start='3'><li>Pazarlama mesajınızı güçlendirmek için Facebook ve Instagram reklamlarınızın e-posta mesajınızla uyumlu olmasını sağlayın.</li></ol>",
		"instruction": "",
		"_graphic": {
			"alt": "alternatif metin",
			"src": "course/en/images/02_connecting/module_2_reinforce_messaging.png",
			"attribution": ""
		},
		"_pageLevelProgress": {
			"_isEnabled": false
		}
	},
	{
		"_id": "c-41100",
		"_parentId": "b-4110",
		"_type": "component",
		"_component": "text",
		"_classes": "",
		"_layout": "full",
		"title": "Dönüşümleri artırın",
		"displayTitle": "",
		"body": "<h2>Dönüşümleri artırın</h2><br><ol><li> E-posta listenize dayalı bir Özel Hedef Kitle oluşturun ve e-postanızı açan ancak sepetine ürün eklemeyen veya alışveriş yapmayan kişileri hedefleyin.</li><br><li>Aşağıda Waylens’ın pazarlama kampanyasında kullandığı bir dönen reklam örneği görebilirsiniz. Dönen reklamlar, ek reklamlar oluşturmadan birden fazla ürün, hizmet veya promosyonun reklamını yapmanıza olanak sağlayan, 3 ila 5 tıklanabilir görsel ve/veya video içeren tek bir reklam ünitesidir. Aşağıdaki amaçlar için kullanılabilir: </li><br><li>Müşterilere daha fazla seçenek sunmak ve tıklanma oranlarınızı artırmak için farklı yönlendirme sayfalarına bağlantı veren birden fazla ürünü sergileyin.</li><br><li>Müşterilere daha ayrıntılı bilgi sunmak için ürünün farklı açılarını veya ayrıntılarını göstererek bir ürünün birden fazla özelliğini öne çıkarın.</li><br><li>İlgi çekici bir hikaye anlatmak için sıralı görseller kullanın.</li></ol>",
		"instruction": "",
		"_pageLevelProgress": {
			"_isEnabled": true
		}
	}, 
	{
		"_id": "c-41200",
		"_parentId": "b-4120",
		"_type": "component",
		"_component": "graphic",
		"_classes": "",
		"_layout": "full",
		"title": "Dönüşüm örneği",
		"displayTitle": "",
		"body": "",
		"instruction": "",
		"_graphic": {
			"alt": "alternatif metin",
			"src": "course/en/images/04_next_steps/module_4_increase_conversions.png",
			"attribution": ""
		},
		"_pageLevelProgress": {
			"_isEnabled": false
		}
	},
	{
		"_id": "c-41300",
		"_parentId": "b-4130",
		"_type": "component",
		"_component": "text",
		"_classes": "",
		"_layout": "full",
		"title": "Facebook Pazarlama Ortakları",
		"displayTitle": "",
		"body": "Bir reklam oluşturmaya hazır mısınız? Başlamak için <a href='https://www.facebook.com/ads/manager/creation/creation/?act=4411141356089&pid=p1' target='_blank'>buraya</a> tıklayarak Reklam Oluşturma Aracı’na gidebilirsiniz.<br><br>Ayrıca hazırlanmak için Facebook Pazarlama Ortaklarımızla da çalışabilirsiniz. Ortaklarımızın kapsamlı listesine ulaşmak için lütfen <a href='https://facebookmarketingpartners.com/about/audience-onboarding/' target='_blank'>buraya</a> tıklayın.",
		"instruction": "",
		"_pageLevelProgress": {
			"_isEnabled": true
		}
	},
	{
		"_id": "c-41400",
		"_parentId": "b-4140",
		"_type": "component",
		"_component": "co-jump",
		"_classes": "color-test",
		"_preLinkBody": "Facebook reklamlarını oluşturmaya nasıl başlayacağınızı artık biliyorsunuz. Şimdi de değindiğimiz konulara ilişkin bir ",
		"_linkBody": "Özet.",
		"_postLinkBody": "",
		"_link": "#/id/co-5000",
		"_graphic": "adapt/css/assets/icon_nextPage.png",
		"_pageLevelProgress": {
			"_isEnabled": false
		}
	},
	{
		"_id": "c-50000",
		"_parentId": "b-5000",
		"_type": "component",
		"_component": "text",
		"_classes": "",
		"_layout": "full",
		"title": "Facebook ve Instagram Reklamlarının Etkililiği",
		"displayTitle": "",
		"body": "Facebook ve Instagram’ın veritabanınızı büyütmenize ve kampanyanızı daha etkili hale getirmenize nasıl yardımcı olabileceğini daha iyi anladığınızı umuyoruz.",
		"instruction": "",
		"_pageLevelProgress": {
			"_isEnabled": false
		}
	},
	{
		"_id": "c-50100",
		"_parentId": "b-5010",
		"_type": "component",
		"_component": "graphic",
		"_classes": "",
		"_layout": "left",
		"title": "fotoğraf",
		"displayTitle": "",
		"body": "",
		"instruction": "",
		"_graphic": {
			"alt": "alternatif metin",
			"src": "course/en/images/05_recap/image1.png",
			"attribution": ""
		},
		"_pageLevelProgress": {
			"_isEnabled": false
		}
	}, 
	{
		"_id": "c-50150",
		"_parentId": "b-5010",
		"_type": "component",
		"_component": "text",
		"_classes": "",
		"_layout": "right",
		"title": "Özet",
		"displayTitle": "",
		"body": "<br>Facebook ve Instagram’da insanlara dayalı hedefleme özelliği e-posta veritabanınıza yeni potansiyel müşteriler eklemenize yardımcı olur ve potansiyel müşteri reklamları bunu yapmanın harika bir yoludur. Benzer hedef kitleleri kullanarak, reklamlarınızla işletmenize önceden ilgi göstermiş kişilerle benzer özellikteki insanları hedefleyebilirsiniz. Potansiyel müşteri reklamlarıyla edindiğiniz potansiyel müşteri bilgilerini CRM sisteminize entegre edebilirsiniz.",
		"instruction": "",
		"_pageLevelProgress": {
			"_isEnabled": false
		}
	},
	{
		"_id": "c-50200",
		"_parentId": "b-5020",
		"_type": "component",
		"_component": "text",
		"_classes": "",
		"_layout": "left",
		"title": "Entegre edilmiş pazarlamanın değeri",
		"displayTitle": "",
		"body": "<br><br>Mevcut müşteri veritabanınız Facebook ve Instagram reklamlarıyla eşleştirildiğinde, işletmenize ilgi gösteren müşterileri daha iyi hedeflemenize yardımcı olabilir. E-posta üzerinden hedef kitlenize erişerek dikkatlerini çekin. Ardından Facebook ve Instagram’da Özel Hedef Kitlenizi oluşturup hedefleyerek, pazarlama mesajınızı güçlendirebilir, müşterilerinizin etkileşimde kalmasını sağlayabilir ve onları dönüşüm gerçekleştirmeye teşvik edebilirsiniz.",
		"instruction": "",
		"_pageLevelProgress": {
			"_isEnabled": false
		}
	},
	{
		"_id": "c-50250",
		"_parentId": "b-5020",
		"_type": "component",
		"_component": "graphic",
		"_classes": "",
		"_layout": "right",
		"title": "İşte oldu",
		"displayTitle": "",
		"body": "",
		"instruction": "",
		"_graphic": {
			"alt": "alternatif metin",
			"src": "course/en/images/05_recap/image2.png",
			"attribution": ""
		},
		"_pageLevelProgress": {
			"_isEnabled": false
		}
	}, 
    {
        "_id":"c-50300",
        "_parentId":"b-5030",
        "_type":"component",
        "_component":"co-jump",
        "_classes":"color-test",
        "_autoComplete":true,
        "_preLinkBody":"Bu kursu bitirmek için aşağıdaki düğmeye tıklayın. Not: Tüm modüller için durum çubuklarının tamamlandığından emin olmak için <a href='#'>buraya tıklayın</a>.<br>",
        "_linkBody":"<div style = 'text-align:center;padding:8px;'><button class='buttons-action'><b>BU KURSU BİTİRDİM</b></button></div><br> ",
        "_postLinkBody":"",
        "_link":"",
        "_pageLevelProgress": {
            "_isEnabled": false
        }
}

]